Humanitarian Exchange Language • rhxl
…
You can get the schema as a tidy long table:

hxl_schema(hxl_data)
#> # A tibble: 35 × 3
#>      tag attribute column_idx
#>    <chr>     <chr>      <int>
#> 1   meta        id          1
#> 2   meta      code          2
#> 3    loc   airport          3
#> 4    loc      type          3
#> 5    loc   airport          4
#> 6    loc      name          4
#> 7    geo       lat          5
#> 8    geo       lon          6
#> 9    geo elevation          7
#> 10   geo        ft          7
#> # ... with 25 more rows
…
